{
  "$schema": "node_modules/@openapitools/openapi-generator-cli/config.schema.json",
  "spaces": 2,
  "generator-cli": {
    "version": "5.0.0",
    "generators": {
      "coffee": {
        "generatorName": "typescript-angular",
        "output": "#{cwd}/src/#{name}-api",
        "glob": "../api/coffee.yaml",
        "additionalProperties": {
          "modelNameSuffix": "DTO",
          "supportsES6": "true"
        }
      }
    }
  }
}
